Modelos Exploratorios: Tesis de Magister
…
2.4.2 Comparar efecto total vs directo

# A tibble: 21 × 10
   term    estimate_total se_total p_total estimate_directo se_directo p_directo
   <chr>            <dbl>    <dbl>   <dbl>            <dbl>      <dbl>     <dbl>
 1 movili…        -0.313     0.247  0.205           -0.434       0.408    0.288 
 2 movili…         0.248     0.202  0.221           -0.112       0.330    0.733 
 3 movili…         0.0106    0.148  0.943            0.0608      0.229    0.791 
 4 educ_c…         0.202     0.309  0.514            0.429       0.521    0.410 
 5 educ_c…        -0.118     0.446  0.792            0.364       0.969    0.707 
 6 educ_c…         0.0230    0.334  0.945            0.192       0.527    0.715 
 7 educ_c…        -0.404     0.344  0.240            0.0373      0.581    0.949 
 8 educ_c…         1.18      0.623  0.0588           1.51        0.894    0.0914
 9 educ_c…         1.64      1.20   0.170            1.28        1.62     0.430 
10 educ_c…        -0.0515    0.267  0.847            0.531       0.445    0.233 
# ℹ 11 more rows
# ℹ 3 more variables: efecto_indirecto <dbl>, cambio_pct <dbl>, reduccion <lgl>

# A tibble: 24 × 10
   term    estimate_total se_total p_total estimate_directo se_directo p_directo
   <chr>            <dbl>    <dbl>   <dbl>            <dbl>      <dbl>     <dbl>
 1 educ_c…        -0.637     0.137 3.51e-6          -0.419       0.228 0.0663   
 2 educ_c…         0.319     0.191 9.51e-2           0.352       0.393 0.370    
 3 educ_c…         0.271     0.149 6.96e-2           0.578       0.231 0.0124   
 4 educ_c…         0.553     0.166 8.94e-4           1.11        0.282 0.0000865
 5 educ_c…         0.135     0.247 5.85e-1           0.370       0.356 0.299    
 6 educ_c…         0.509     0.425 2.31e-1           1.12        0.589 0.0575   
 7 educ_c…         0.202     0.309 5.14e-1           0.429       0.521 0.410    
 8 educ_c…        -0.118     0.446 7.92e-1           0.364       0.969 0.707    
 9 educ_c…         0.0230    0.334 9.45e-1           0.192       0.527 0.715    
10 educ_c…        -0.404     0.344 2.40e-1           0.0373      0.581 0.949    
# ℹ 14 more rows
# ℹ 3 more variables: efecto_indirecto <dbl>, prop_mediada <dbl>,
#   reduccion <lgl>
…
